<svg width="512" height="512" viewBox="0 0 512 512" fill="none" xmlns="http://www.w3.org/2000/svg">
<path d="M140.8 179.2H281.6L51.1997 371.2L140.8 179.2Z" fill="white" fill-opacity="0"/>
<path d="M307.2 179.2H448L217.6 371.2L307.2 179.2Z" fill="white" fill-opacity="0"/>
</svg>
