<svg width="359" height="92" viewBox="0 0 359 92" fill="none" xmlns="http://www.w3.org/2000/svg">
<path d="M156.832 73.2899L150.383 84M176.146 73.6265L169.041 83.6634M195.465 73.9632L187.727 83.3329M214.779 74.2936L206.398 82.9963M234.097 74.6363L225.072 82.6658M253.416 74.9729L243.742 82.317M272.73 75.2851L262.408 81.9804M292.04 75.6217L281.079 81.6438M311.355 75.9583L299.753 81.3133M330.673 76.2888L318.423 80.9767M349.992 76.6254L337.094 80.6401M176.146 56.2211L169.041 66.2641M214.779 56.8882L206.398 65.5848M234.097 57.2187L225.072 65.2543M272.73 57.9103L262.408 64.5995M292.04 58.2408L281.087 64.2323M311.363 58.5406L299.761 63.8957M330.682 58.8772L318.431 63.5591M350 59.2077L337.102 63.2286M2.29644 35.8047L1 51.8698M40.921 36.4779L38.3446 51.2027M60.2271 36.8084L57.0025 50.8845M79.5414 37.1633L75.6728 50.5479M98.8599 37.4999L94.3472 50.2174M118.178 37.8304L113.017 49.8808M137.493 38.167L131.712 49.5442M156.832 38.5281L150.383 49.2382M176.146 38.8341L169.041 48.8587M195.465 39.1401L187.727 48.5099M214.779 39.4767L206.398 48.1794M234.097 39.8133L225.072 47.8428M253.416 40.1438L243.742 47.4878M272.73 40.462L262.408 47.1573M292.04 40.7986L281.079 46.8207M311.355 41.1291L299.753 46.4842M330.673 41.4657L318.423 46.1537M349.992 41.8023L337.102 45.8721M21.6149 18.7481L19.6785 34.1462M60.2477 19.4213L57.0232 33.4974M79.5621 19.7763L75.6934 33.1669M98.8805 20.1129L94.3678 32.8303M118.199 20.4495L113.038 32.4937M156.832 21.1166L150.383 31.7961M176.146 21.392L169.041 31.4533M195.465 21.747L187.727 31.1229M214.779 22.0835L206.398 30.7862M234.097 22.4201L225.072 30.4496M253.416 22.7506L243.742 30.0947M272.73 23.0627L262.408 29.7581M292.04 23.3994L281.079 29.4215M311.355 23.736L299.753 29.091M330.673 24.0664L318.423 28.7544M349.992 24.403L337.094 28.4178M2.29644 1L1 17.0651M21.6066 1.3366L19.6702 16.7285M40.921 1.6671L38.3446 16.3919M79.5538 2.31582L75.6852 15.7004M98.8723 2.64629L94.3595 15.3638M118.199 3.03186L113.038 15.0822M137.513 3.36845L131.712 14.7456M156.832 3.69896L150.383 14.409M176.146 4.03555L169.041 14.0479M214.762 4.67202L206.381 13.3747M234.081 5.00862L225.055 13.0442M253.399 5.34525L243.726 12.6893M272.714 5.65734L262.392 12.3527M292.024 5.99398L281.062 12.0222M311.338 6.33057L299.736 11.6856M330.657 6.66716L318.407 11.349M349.975 6.99764L337.077 11.0124" stroke="#1500FF" stroke-width="2" stroke-miterlimit="10"/>
</svg>
