<svg width="25" height="25" viewBox="0 0 25 25" fill="none" xmlns="http://www.w3.org/2000/svg">
<rect width="25" height="25" fill="none"/>
<path fill-rule="evenodd" clip-rule="evenodd" d="M15.7758 6.00015C14.7438 5.99118 13.7495 6.38791 13.0072 7.10488L12.9969 7.115L11.9869 8.11912C11.5952 8.5085 11.5934 9.14166 11.9828 9.53332C12.3722 9.92498 13.0053 9.92683 13.397 9.53745L14.4013 8.53896C14.7659 8.18914 15.253 7.99568 15.7584 8.00007C16.266 8.00448 16.7516 8.20809 17.1106 8.56704C17.4695 8.92599 17.6731 9.41156 17.6775 9.91918C17.6819 10.4242 17.4888 10.9108 17.1395 11.2753L15.3847 13.0302L15.3846 13.0303C15.1883 13.2266 14.9521 13.3785 14.692 13.4755C14.4319 13.5725 14.154 13.6125 13.8771 13.5926C13.6002 13.5728 13.3308 13.4937 13.0872 13.3605C12.8435 13.2274 12.6314 13.0435 12.4651 12.8212C12.1343 12.379 11.5076 12.2886 11.0654 12.6194C10.6231 12.9502 10.5328 13.5769 10.8636 14.0192C11.2016 14.4711 11.6329 14.8451 12.1282 15.1157C12.6235 15.3863 13.1713 15.5472 13.7342 15.5875C14.2972 15.6278 14.8622 15.5466 15.391 15.3494C15.9198 15.1521 16.3999 14.8435 16.7989 14.4444L16.7991 14.4442L18.5605 12.6828L18.5727 12.6704C19.2897 11.928 19.6864 10.9338 19.6774 9.9018C19.6685 8.86979 19.2545 7.88259 18.5248 7.15283C17.795 6.42306 16.8078 6.00912 15.7758 6.00015ZM11.9434 10.078C11.3804 10.0377 10.8154 10.1189 10.2866 10.3162C9.75781 10.5134 9.27766 10.8221 8.87866 11.2212L8.87853 11.2213L7.11706 12.9828L7.10488 12.9952C6.38791 13.7375 5.99118 14.7318 6.00015 15.7638C6.00912 16.7958 6.42306 17.783 7.15283 18.5127C7.88259 19.2425 8.86979 19.6564 9.9018 19.6654C10.9338 19.6744 11.928 19.2777 12.6704 18.5607L12.6828 18.5485L13.6869 17.5444C14.0774 17.1539 14.0774 16.5207 13.6869 16.1302C13.2964 15.7397 12.6632 15.7397 12.2727 16.1302L11.2753 17.1275C10.9108 17.4768 10.4242 17.6699 9.91918 17.6655C9.41156 17.6611 8.92599 17.4575 8.56704 17.0985C8.20809 16.7396 8.00448 16.254 8.00007 15.7464C7.99568 15.2414 8.18881 14.7547 8.53806 14.3902L10.2929 12.6354L10.293 12.6353C10.4893 12.4389 10.7255 12.2871 10.9856 12.1901C11.2457 12.093 11.5236 12.0531 11.8005 12.0729C12.0774 12.0928 12.3468 12.1719 12.5904 12.305C12.8341 12.4381 13.0462 12.6221 13.2125 12.8444C13.5433 13.2866 14.17 13.377 14.6122 13.0461C15.0545 12.7153 15.1448 12.0887 14.814 11.6464C14.476 11.1944 14.0446 10.8205 13.5493 10.5499C13.054 10.2793 12.5063 10.1184 11.9434 10.078Z" fill="#2142FF"/>
</svg>
