<svg width="25" height="25" viewBox="0 0 25 25" fill="none" xmlns="http://www.w3.org/2000/svg">
<rect width="25" height="25" fill="white"/>
<path d="M18.1725 9.21483C17.7313 9.41575 17.2563 9.55163 16.7581 9.61233C17.2669 9.30012 17.6574 8.80504 17.8413 8.2153C17.3648 8.50439 16.8384 8.7147 16.276 8.82745C15.8277 8.33671 15.1871 8.03027 14.478 8.03027C13.1185 8.03027 12.0155 9.16135 12.0155 10.5562C12.0155 10.7543 12.0366 10.9465 12.0789 11.1315C10.0315 11.026 8.21668 10.0214 7.00092 8.49137C6.78878 8.86576 6.66755 9.30012 6.66755 9.76267C6.66755 10.6386 7.10241 11.4119 7.7635 11.8651C7.36036 11.8528 6.97977 11.7379 6.64711 11.55V11.5811C6.64711 12.8054 7.49638 13.8266 8.62405 14.0579C8.41755 14.1171 8.19976 14.1468 7.97494 14.1468C7.81636 14.1468 7.66131 14.1316 7.51119 14.1019C7.82482 15.1051 8.734 15.8358 9.81232 15.8553C8.9694 16.5333 7.90657 16.9372 6.75283 16.9372C6.55408 16.9372 6.35745 16.9257 6.16504 16.9025C7.25535 17.6181 8.55075 18.0365 9.9413 18.0365C14.4731 18.0365 16.9504 14.188 16.9504 10.8497C16.9504 10.7398 16.9483 10.6299 16.9441 10.5223C17.4255 10.166 17.8434 9.72147 18.1725 9.21483Z" fill="#2142FF"/>
</svg>
